Mishutkin;цукывпы;Petrovich;+7(977)977-97-79;8(977)977-97-79;msc;27.02.2011;ekek ekek
Sashutkin;Alexander;Petrovich;+7(977)977-97-79;8(977)977-97-79;msc;27.02.2001;ekdask ekek
Kekutkin;Alexander;Petrovich;+7(977)977-97-79;8(977)977-7-79;msc;27.02.2001;ekek ekek
M-n;Alexander;Petrovich;+7(977)977-97-79;8(977)977-97-79;werc;27.02.2000;ekek ekek
arg;Alexander;Petrovich;+7(977)977-97-79;8(977)977-97-79;msc;27.02.2001;ekek aGrek
Keegagraekutkin;Alexander;Petrovich;+7(977)977-97-79;8(977)977-97-79;mwRGsc;27.02.2001;ekek ekek
agraraegrerg-n;Alexander;Petrovich;+7(977)97AWGR7-97-79;8(977)977-97-79;msc;27.02.2000;ekek ekek
